*** Life<Cell> 8x4 ***

Generation = 0, Population = 10.
-0--
0-0-
----
---0
----
--0-
-0-0
000-

Generation = 3, Population = 17.
0-01
-01-
-1--
11-1
--0-
01--
-.0-
***1

Generation = 6, Population = 11.
---.
0-1-
-1--
.*--
-*1-
*.--
1.1-
.**.

*** Life<Cell> 3x1 ***

Generation = 0, Population = 2.
0
-
0

Generation = 1, Population = 0.
-
-
-

Generation = 2, Population = 0.
-
-
-

Generation = 3, Population = 0.
-
-
-

Generation = 4, Population = 0.
-
-
-

Generation = 5, Population = 0.
-
-
-

Generation = 6, Population = 0.
-
-
-

Generation = 7, Population = 0.
-
-
-

Generation = 8, Population = 0.
-
-
-

Generation = 9, Population = 0.
-
-
-

*** Life<Cell> 4x1 ***

Generation = 0, Population = 1.
-
0
-
-

Generation = 1, Population = 2.
0
-
0
-

Generation = 2, Population = 1.
-
-
-
0

Generation = 3, Population = 1.
-
-
0
-

Generation = 4, Population = 2.
-
0
-
0

Generation = 5, Population = 1.
0
-
-
-

*** Life<Cell> 6x2 ***

Generation = 0, Population = 5.
-0
--
-0
-0
0-
-0

*** Life<Cell> 3x5 ***

Generation = 0, Population = 8.
-0-00
0-00-
0--0-

Generation = 2, Population = 8.
0-10-
-1*-0
--0-1

Generation = 4, Population = 7.
01-*-
1*.--
---1*

Generation = 6, Population = 7.
-1-.*
-*.-*
*1-*.

*** Life<Cell> 9x3 ***

Generation = 0, Population = 9.
-0-
-00
---
---
0-0
0--
-0-
--0
--0

*** Life<Cell> 8x5 ***

Generation = 0, Population = 13.
00---
---00
--0-0
---0-
----0
----0
00---
-00--

Generation = 3, Population = 20.
1*0--
0*1.1
0*--*
--0--
110-1
0*0-*
*----
--.--

Generation = 6, Population = 18.
-*-*-
-.*.*
1*00.
10-00
-.1-.
..-1.
*---1
-1.1-
