10

2 2
20
1 0
1 0
1 1
1 1
0 0
1 0
1 1
1 1
1 1
1 1
0 1
1 1
1 0
0 0
1 1
1 0
1 0
0 0
1 1
1 0
36 5

2 13
6
0 5
0 1
0 1
1 4
0 0
1 10
51 6

12 2
19
4 1
4 0
3 0
8 1
8 1
8 0
4 0
11 1
7 1
11 0
10 1
2 0
7 0
2 0
2 1
7 1
8 1
0 0
2 1
51 20

1 5
8
0 3
0 4
0 3
0 0
0 1
0 3
0 1
0 3
32 15

5 11
19
4 8
3 5
2 5
3 4
1 10
1 6
1 3
3 1
4 4
2 3
4 7
0 5
4 6
4 3
1 10
2 0
2 0
3 5
3 9
74 7

3 2
2
2 1
0 1
57 19

1 11
11
0 9
0 4
0 9
0 1
0 9
0 5
0 4
0 9
0 1
0 8
0 4
35 12

15 12
5
13 11
8 4
11 9
1 7
8 3
76 6

2 10
19
1 4
0 5
1 5
0 7
0 9
0 5
1 7
1 5
0 1
0 8
0 8
1 3
1 3
1 8
1 1
0 3
1 5
1 8
0 5
94 3

2 10
14
1 2
1 4
1 7
1 4
1 0
1 0
1 9
1 9
0 1
0 9
0 7
0 9
1 3
1 8
31 2
