*** Life<Cell> 5x5 ***

Generation = 0, Population = 13.
-00-0
00---
0-00-
0--00
0---0

Generation = 21, Population = 0.
.....
.....
....-
...-.
.....

*** Life<Cell> 5x5 ***

Generation = 0, Population = 13.
-00-0
00---
0-00-
0--00
0---0

Generation = 113, Population = 0.
.....
.....
....-
...-.
.....

*** Life<Cell> 10x10 ***

Generation = 0, Population = 19.
----------
00--------
0-0-------
0--0------
0---0--0--
0----0----
0-----0---
0------0--
0-------0-
0--------0

*** Life<Cell> 10x10 ***

Generation = 0, Population = 19.
----------
00--------
0-0-------
0--0-0----
0---0-----
0----0----
0-----0---
0------0--
0-------0-
0--------0

Generation = 88, Population = 0.
...-......
..........
..........
..........
.........-
..........
..........
..........
..........
..........

*** Life<Cell> 10x10 ***

Generation = 0, Population = 19.
----------
00--------
0-0-----0-
0--0-0----
0---0-----
0---------
0-----0---
0------0--
0-------0-
0--------0

Generation = 7, Population = 44.
*-.11-00-0
0.---1-10-
*0-010----
-1*-*--1--
-0-0-0-0--
0**-1-110-
0--0-0---0
.-1-*.*10-
001-------
.-.0---1--

*** Life<Cell> 5x5 ***

Generation = 0, Population = 13.
-00-0
-0-0-
-000-
-0-00
---00

Generation = 5, Population = 10.
--.--
0-0-0
*-.-1
--*-*
1-*-*

*** Life<Cell> 5x5 ***

Generation = 0, Population = 13.
-00-0
00---
0-00-
0--0-
0--00

Generation = 12, Population = 7.
..*.-
.-...
1*-..
0-.-.
.**.*

*** Life<Cell> 5x5 ***

Generation = 0, Population = 13.
-00-0
00---
0-00-
0--00
0---0

Generation = 13, Population = 14.
**.**
.*.*.
**.*-
*1.-*
.1..1
