9

9 8
18
1 1
6 2
2 6
3 0
3 7
2 7
1 3
4 1
2 4
7 2
5 4
6 4
6 4
5 7
8 3
4 6
8 5
3 4
4 1

10 6
5
2 1
6 2
3 1
1 1
9 0
7 1

9 7
16
0 4
0 4
7 6
7 2
1 4
0 6
1 5
0 6
8 1
3 4
0 5
4 4
6 3
3 5
6 5
6 4
4 2

5 6
19
4 3
4 2
4 5
4 2
1 5
1 2
0 1
2 3
3 4
1 3
3 0
0 3
4 0
4 1
4 3
4 3
1 0
0 4
2 2
8 1

8 7
11
7 4
3 2
6 4
7 1
4 4
1 1
2 4
1 1
2 4
1 0
6 5
4 2

7 9
19
4 5
5 0
3 8
6 3
1 4
1 7
2 1
3 4
3 7
6 5
5 2
6 4
6 5
1 7
5 2
0 2
4 6
6 3
0 5
8 1

6 7
11
1 1
2 3
2 0
3 1
1 2
0 5
4 0
1 6
3 3
5 5
1 1
4 2

5 7
8
2 6
0 0
2 5
2 3
3 3
0 6
4 6
1 3
5 2

10 7
17
9 6
1 0
0 6
6 0
7 5
4 6
8 0
7 2
0 4
7 0
1 6
2 3
4 0
6 3
9 5
1 2
5 4
5 1
